id;task_id;team_member_id;date_from;date_until
-1;-1;-1;current_date -35;null
-2;-1;-2;current_date -34;null
-3;-1;-3;current_date -33;null
-4;-2;-2;current_date -32;null
-5;-2;-3;current_date -30;current_date +50
-6;-3;-1;current_date -30;current_date - 9
-7;-3;-3;current_date -20;current_date -10
